%TF.GenerationSoftware,KiCad,Pcbnew,(6.0.10)*%
%TF.CreationDate,2023-06-09T09:04:45+02:00*%
%TF.ProjectId,PIR_LED_Switch,5049525f-4c45-4445-9f53-77697463682e,rev?*%
%TF.SameCoordinates,Original*%
%TF.FileFunction,Soldermask,Top*%
%TF.FilePolarity,Negative*%
%FSLAX46Y46*%
G04 Gerber Fmt 4.6, Leading zero omitted, Abs format (unit mm)*
G04 Created by KiCad (PCBNEW (6.0.10)) date 2023-06-09 09:04:45*
%MOMM*%
%LPD*%
G01*
G04 APERTURE LIST*
G04 Aperture macros list*
%AMRoundRect*
0 Rectangle with rounded corners*
0 $1 Rounding radius*
0 $2 $3 $4 $5 $6 $7 $8 $9 X,Y pos of 4 corners*
0 Add a 4 corners polygon primitive as box body*
4,1,4,$2,$3,$4,$5,$6,$7,$8,$9,$2,$3,0*
0 Add four circle primitives for the rounded corners*
1,1,$1+$1,$2,$3*
1,1,$1+$1,$4,$5*
1,1,$1+$1,$6,$7*
1,1,$1+$1,$8,$9*
0 Add four rect primitives between the rounded corners*
20,1,$1+$1,$2,$3,$4,$5,0*
20,1,$1+$1,$4,$5,$6,$7,0*
20,1,$1+$1,$6,$7,$8,$9,0*
20,1,$1+$1,$8,$9,$2,$3,0*%
%AMFreePoly0*
4,1,22,0.500000,-0.750000,0.000000,-0.750000,0.000000,-0.745033,-0.079941,-0.743568,-0.215256,-0.701293,-0.333266,-0.622738,-0.424486,-0.514219,-0.481581,-0.384460,-0.499164,-0.250000,-0.500000,-0.250000,-0.500000,0.250000,-0.499164,0.250000,-0.499963,0.256109,-0.478152,0.396186,-0.417904,0.524511,-0.324060,0.630769,-0.204165,0.706417,-0.067858,0.745374,0.000000,0.744959,0.000000,0.750000,
0.500000,0.750000,0.500000,-0.750000,0.500000,-0.750000,$1*%
%AMFreePoly1*
4,1,20,0.000000,0.744959,0.073905,0.744508,0.209726,0.703889,0.328688,0.626782,0.421226,0.519385,0.479903,0.390333,0.500000,0.250000,0.500000,-0.250000,0.499851,-0.262216,0.476331,-0.402017,0.414519,-0.529596,0.319384,-0.634700,0.198574,-0.708877,0.061801,-0.746166,0.000000,-0.745033,0.000000,-0.750000,-0.500000,-0.750000,-0.500000,0.750000,0.000000,0.750000,0.000000,0.744959,
0.000000,0.744959,$1*%
%AMFreePoly2*
4,1,22,0.550000,-0.750000,0.000000,-0.750000,0.000000,-0.745033,-0.079941,-0.743568,-0.215256,-0.701293,-0.333266,-0.622738,-0.424486,-0.514219,-0.481581,-0.384460,-0.499164,-0.250000,-0.500000,-0.250000,-0.500000,0.250000,-0.499164,0.250000,-0.499963,0.256109,-0.478152,0.396186,-0.417904,0.524511,-0.324060,0.630769,-0.204165,0.706417,-0.067858,0.745374,0.000000,0.744959,0.000000,0.750000,
0.550000,0.750000,0.550000,-0.750000,0.550000,-0.750000,$1*%
%AMFreePoly3*
4,1,20,0.000000,0.744959,0.073905,0.744508,0.209726,0.703889,0.328688,0.626782,0.421226,0.519385,0.479903,0.390333,0.500000,0.250000,0.500000,-0.250000,0.499851,-0.262216,0.476331,-0.402017,0.414519,-0.529596,0.319384,-0.634700,0.198574,-0.708877,0.061801,-0.746166,0.000000,-0.745033,0.000000,-0.750000,-0.550000,-0.750000,-0.550000,0.750000,0.000000,0.750000,0.000000,0.744959,
0.000000,0.744959,$1*%
G04 Aperture macros list end*
%ADD10RoundRect,0.250000X0.450000X-0.350000X0.450000X0.350000X-0.450000X0.350000X-0.450000X-0.350000X0*%
%ADD11RoundRect,0.250000X0.450000X-0.325000X0.450000X0.325000X-0.450000X0.325000X-0.450000X-0.325000X0*%
%ADD12RoundRect,0.875000X-0.875000X0.875000X-0.875000X-0.875000X0.875000X-0.875000X0.875000X0.875000X0*%
%ADD13RoundRect,0.750000X-1.000000X0.750000X-1.000000X-0.750000X1.000000X-0.750000X1.000000X0.750000X0*%
%ADD14R,3.500000X3.500000*%
%ADD15RoundRect,0.250000X-0.325000X-0.450000X0.325000X-0.450000X0.325000X0.450000X-0.325000X0.450000X0*%
%ADD16C,2.500000*%
%ADD17RoundRect,0.250000X-0.475000X0.250000X-0.475000X-0.250000X0.475000X-0.250000X0.475000X0.250000X0*%
%ADD18R,1.000000X1.000000*%
%ADD19RoundRect,0.250000X-0.725000X0.600000X-0.725000X-0.600000X0.725000X-0.600000X0.725000X0.600000X0*%
%ADD20O,1.950000X1.700000*%
%ADD21RoundRect,0.250000X-0.750000X0.600000X-0.750000X-0.600000X0.750000X-0.600000X0.750000X0.600000X0*%
%ADD22O,2.000000X1.700000*%
%ADD23RoundRect,0.250000X0.350000X0.450000X-0.350000X0.450000X-0.350000X-0.450000X0.350000X-0.450000X0*%
%ADD24R,1.200000X2.200000*%
%ADD25R,5.800000X6.400000*%
%ADD26R,0.800000X1.900000*%
%ADD27FreePoly0,180.000000*%
%ADD28FreePoly1,180.000000*%
%ADD29R,2.000000X1.780000*%
%ADD30R,1.800000X3.500000*%
%ADD31RoundRect,0.150000X-0.150000X0.675000X-0.150000X-0.675000X0.150000X-0.675000X0.150000X0.675000X0*%
%ADD32FreePoly2,90.000000*%
%ADD33R,1.500000X1.000000*%
%ADD34FreePoly3,90.000000*%
G04 APERTURE END LIST*
D10*
%TO.C,R8*%
X132689600Y-60960000D03*
X132689600Y-62960000D03*
%TD*%
D11*
%TO.C,D9*%
X132689600Y-66845800D03*
X132689600Y-64795800D03*
%TD*%
D12*
%TO.C,J2*%
X99236800Y-69548000D03*
D13*
X103936800Y-66548000D03*
D14*
X103936800Y-72548000D03*
%TD*%
D10*
%TO.C,R7*%
X135636000Y-85328000D03*
X135636000Y-83328000D03*
%TD*%
D15*
%TO.C,D8*%
X129531000Y-87630000D03*
X131581000Y-87630000D03*
%TD*%
D16*
%TO.C,H3*%
X136906000Y-89154000D03*
%TD*%
D17*
%TO.C,C3*%
X115010200Y-70915000D03*
X115010200Y-72815000D03*
%TD*%
D15*
%TO.C,D7*%
X99559000Y-87630000D03*
X101609000Y-87630000D03*
%TD*%
D18*
%TO.C,D2*%
X125476000Y-75712000D03*
X125476000Y-78212000D03*
%TD*%
D19*
%TO.C,J4*%
X110761000Y-78272000D03*
D20*
X110761000Y-80772000D03*
X110761000Y-83272000D03*
%TD*%
D21*
%TO.C,J6*%
X127169400Y-61894400D03*
D22*
X127169400Y-64394400D03*
%TD*%
D10*
%TO.C,R5*%
X115316000Y-85582000D03*
X115316000Y-83582000D03*
%TD*%
D23*
%TO.C,R3*%
X121142000Y-67818000D03*
X119142000Y-67818000D03*
%TD*%
D18*
%TO.C,D4*%
X105156000Y-75590400D03*
X105156000Y-78090400D03*
%TD*%
D10*
%TO.C,R6*%
X105156000Y-85566000D03*
X105156000Y-83566000D03*
%TD*%
D15*
%TO.C,D6*%
X109211000Y-87630000D03*
X111261000Y-87630000D03*
%TD*%
D16*
%TO.C,H4*%
X136906000Y-61722000D03*
%TD*%
D18*
%TO.C,D3*%
X115316000Y-75712000D03*
X115316000Y-78212000D03*
%TD*%
D19*
%TO.C,J1*%
X131081000Y-78272000D03*
D20*
X131081000Y-80772000D03*
X131081000Y-83272000D03*
%TD*%
D19*
%TO.C,J5*%
X100584000Y-78272000D03*
D20*
X100584000Y-80772000D03*
X100584000Y-83272000D03*
%TD*%
D24*
%TO.C,U2*%
X110444200Y-68683800D03*
D25*
X112724200Y-62383800D03*
D24*
X115004200Y-68683800D03*
%TD*%
D15*
%TO.C,D5*%
X119625000Y-87630000D03*
X121675000Y-87630000D03*
%TD*%
D10*
%TO.C,R2*%
X117856000Y-73644000D03*
X117856000Y-71644000D03*
%TD*%
D17*
%TO.C,C1*%
X110388400Y-70881200D03*
X110388400Y-72781200D03*
%TD*%
D26*
%TO.C,Q1*%
X120208000Y-73382000D03*
X122108000Y-73382000D03*
X121158000Y-70382000D03*
%TD*%
D27*
%TO.C,JP2*%
X138318000Y-66903600D03*
D28*
X137018000Y-66903600D03*
%TD*%
D29*
%TO.C,U1*%
X138308000Y-72390000D03*
X138308000Y-69850000D03*
X128778000Y-69850000D03*
X128778000Y-72390000D03*
%TD*%
D19*
%TO.C,J3*%
X120921000Y-78272000D03*
D20*
X120921000Y-80772000D03*
X120921000Y-83272000D03*
%TD*%
D17*
%TO.C,C2*%
X112876600Y-70899800D03*
X112876600Y-72799800D03*
%TD*%
D30*
%TO.C,D1*%
X94843600Y-67248400D03*
X94843600Y-72248400D03*
%TD*%
D16*
%TO.C,H1*%
X95758000Y-89154000D03*
%TD*%
D10*
%TO.C,R4*%
X125476000Y-85328000D03*
X125476000Y-83328000D03*
%TD*%
%TO.C,R1*%
X135636000Y-78232000D03*
X135636000Y-76232000D03*
%TD*%
D16*
%TO.C,H2*%
X95758000Y-61722000D03*
%TD*%
D31*
%TO.C,Q2*%
X122174000Y-65278000D03*
X120904000Y-60028000D03*
X122174000Y-60028000D03*
X119634000Y-60028000D03*
X118364000Y-60028000D03*
X118364000Y-65278000D03*
X119634000Y-65278000D03*
X120904000Y-65278000D03*
%TD*%
D32*
%TO.C,JP3*%
X125222000Y-73182000D03*
D33*
X125222000Y-71882000D03*
D34*
X125222000Y-70582000D03*
%TD*%
M02*
